<svg width="300" height="413" viewBox="0 0 300 413" fill="none" xmlns="http://www.w3.org/2000/svg">
<circle cx="150" cy="150" r="150" fill="#EAE41E"/>
<path d="M131.844 207.103C127.285 207.103 123.459 205.229 121.347 201.963C119.328 198.839 119.114 194.757 120.763 190.763C122.241 187.182 125.083 183.899 128.765 181.519C132.263 179.257 136.237 178.011 139.955 178.011C144.514 178.011 148.339 179.885 150.452 183.152C154.452 189.341 151.193 198.321 143.034 203.595C139.534 205.858 135.561 207.103 131.844 207.103ZM139.955 185.473C137.658 185.473 135.122 186.294 132.815 187.785C130.43 189.326 128.552 191.449 127.66 193.61C127.249 194.607 126.695 196.492 127.613 197.912C128.323 199.011 129.866 199.642 131.844 199.642C134.14 199.642 136.676 198.821 138.984 197.33C143.866 194.174 145.644 189.459 144.185 187.202C143.476 186.104 141.933 185.473 139.955 185.473Z" fill="black"/>
<path d="M80.107 125.681C78.7839 125.681 77.4792 125.448 76.2297 124.99C70.4006 122.852 67.3967 116.37 69.5351 110.539C71.1556 106.122 75.404 103.154 80.108 103.154C81.4311 103.154 82.7348 103.386 83.9852 103.845C89.8144 105.983 92.8182 112.464 90.6808 118.294C89.0603 122.712 84.8109 125.681 80.107 125.681ZM80.1075 110.616C78.5202 110.616 77.0862 111.617 76.5391 113.109C75.8183 115.076 76.8315 117.264 78.7988 117.986C79.2226 118.141 79.6623 118.22 80.1065 118.22C81.6937 118.22 83.1277 117.218 83.6749 115.726C84.3966 113.759 83.3824 111.572 81.4151 110.85C80.9919 110.694 80.5516 110.616 80.1075 110.616Z" fill="black"/>
<path d="M104.744 113.762C103.421 113.762 102.117 113.53 100.868 113.071C98.0434 112.036 95.7917 109.962 94.5278 107.234C93.2629 104.504 93.1365 101.446 94.1721 98.6221C95.7927 94.2046 100.042 91.2366 104.746 91.2366C106.068 91.2366 107.373 91.4689 108.622 91.9275C114.452 94.0658 117.455 100.548 115.317 106.377C113.697 110.794 109.448 113.762 104.744 113.762ZM104.746 98.6982C103.159 98.6982 101.724 99.7005 101.177 101.192C100.828 102.144 100.87 103.176 101.297 104.097C101.724 105.018 102.483 105.718 103.436 106.067C103.861 106.223 104.3 106.302 104.744 106.302C106.331 106.302 107.765 105.3 108.312 103.809C109.033 101.841 108.02 99.6542 106.054 98.9325C105.629 98.7768 105.189 98.6982 104.746 98.6982Z" fill="black"/>
<path d="M132.38 115.353C131.057 115.353 129.753 115.121 128.503 114.662C125.679 113.626 123.428 111.553 122.163 108.824C120.899 106.095 120.772 103.037 121.809 100.212C123.429 95.7953 127.677 92.8273 132.381 92.8273C133.704 92.8273 135.008 93.0596 136.257 93.5182C139.081 94.5538 141.333 96.627 142.598 99.3562C143.862 102.085 143.988 105.144 142.953 107.967C141.332 112.385 137.084 115.353 132.38 115.353ZM132.381 100.289C130.794 100.289 129.361 101.291 128.814 102.782C128.464 103.735 128.507 104.767 128.933 105.688C129.359 106.608 130.119 107.308 131.072 107.658C131.496 107.814 131.936 107.892 132.38 107.892C133.967 107.892 135.4 106.89 135.947 105.399C136.297 104.446 136.254 103.415 135.828 102.493C135.402 101.572 134.642 100.873 133.689 100.523C133.264 100.367 132.824 100.289 132.381 100.289Z" fill="black"/>
<path d="M157.016 126.629C155.694 126.629 154.39 126.397 153.141 125.939C147.311 123.799 144.308 117.317 146.446 111.489C148.066 107.071 152.315 104.103 157.019 104.103C158.341 104.103 159.645 104.335 160.895 104.794C166.725 106.932 169.728 113.414 167.591 119.243C165.97 123.661 161.721 126.629 157.016 126.629ZM157.019 111.565C155.431 111.565 153.997 112.566 153.45 114.058C152.73 116.025 153.743 118.213 155.71 118.935C156.133 119.09 156.573 119.169 157.016 119.169C158.604 119.169 160.038 118.166 160.586 116.675C161.307 114.708 160.294 112.521 158.326 111.799C157.902 111.643 157.461 111.565 157.019 111.565Z" fill="black"/>
<path d="M175.997 146.908C174.674 146.908 173.369 146.676 172.119 146.218C169.295 145.181 167.043 143.108 165.78 140.379C164.515 137.65 164.388 134.592 165.425 131.767C167.044 127.35 171.294 124.382 175.998 124.382C177.32 124.382 178.624 124.614 179.873 125.072C185.704 127.212 188.707 133.694 186.57 139.522C184.949 143.94 180.7 146.908 175.997 146.908ZM175.998 131.843C174.411 131.843 172.977 132.846 172.429 134.337C172.08 135.29 172.122 136.322 172.549 137.243C172.975 138.164 173.735 138.863 174.688 139.213C175.113 139.369 175.553 139.447 175.997 139.447C177.583 139.447 179.017 138.445 179.565 136.954C180.286 134.987 179.272 132.799 177.304 132.077C176.882 131.922 176.441 131.843 175.998 131.843Z" fill="black"/>
<path d="M242.794 74.8947C242.793 74.8918 242.792 74.8888 242.791 74.8858V74.8863C242.705 74.5182 242.562 74.1566 242.359 73.8149C241.3 72.0471 239.009 71.4716 237.241 72.5311C235.543 73.5483 196.738 97.1826 204.87 125.362C203.725 126.661 202.012 128.693 199.958 131.4C193.961 113.73 180.122 98.8842 160.24 89.0574C144.943 81.4978 128.924 77.433 113.913 77.3027C100.007 77.1629 87.1758 80.3558 76.7944 86.4813C62.9934 94.6249 54.7056 107.446 54.0564 121.657C52.6642 152.138 77.3366 160.336 93.6635 165.761C96.8529 166.821 99.8657 167.822 102.273 168.848C105.311 170.142 107.086 171.789 107.548 173.743C108.342 177.096 105.583 181.362 104.361 182.844C96.5132 190.727 96.645 202.561 104.708 211.688C111.095 218.918 121.181 223.029 132.474 223.029C132.726 223.029 132.982 223.026 133.236 223.022C145.464 222.823 158.634 217.9 171.605 208.737C171.399 213.949 171.506 219.355 172.014 224.934C172.138 226.3 173.002 227.488 174.263 228.027C174.734 228.228 175.233 228.326 175.727 228.326C176.559 228.326 177.382 228.049 178.054 227.512C202.513 208.013 214.622 183.296 220.473 165.995C225.442 151.301 226.86 139.503 227.252 134.806C253.084 121.114 243.237 76.8247 242.794 74.8947ZM172.391 198.803C172.149 199 171.906 199.195 171.664 199.386C158.498 209.772 145.168 215.366 133.115 215.562C123.695 215.711 115.384 212.504 110.3 206.748C104.774 200.492 104.551 193.142 109.733 188.023C109.805 187.952 109.875 187.878 109.94 187.802C110.629 187.001 116.611 179.762 114.819 172.066C113.793 167.658 110.555 164.265 105.197 161.983C102.508 160.837 99.3549 159.79 96.0168 158.68C80.1375 153.404 60.3755 146.837 61.5101 121.996C62.0503 110.177 68.8245 99.8462 80.5857 92.9069C100.738 81.0168 129.279 82.0778 156.934 95.7456C177.031 105.679 190.292 121.079 194.44 139.228C192.082 142.833 189.572 147.02 187.105 151.748C181.155 163.152 174.701 179.345 172.391 198.803ZM213.322 163.851C208.254 178.746 198.26 199.476 179.009 216.914C178.287 190.95 186.348 169.394 193.6 155.43C195.32 152.119 197.071 149.082 198.772 146.334L216.316 153.824C215.508 156.953 214.524 160.319 213.322 163.851ZM218.007 146.433L202.939 140C205.93 135.72 208.498 132.582 210.079 130.75L219.748 134.879C219.521 137.289 219.029 141.313 218.007 146.433ZM223.48 128.36L212.099 123.5C206.866 105.771 227.058 88.8057 236.482 82.0276C238.141 93.5226 239.938 119.863 223.48 128.36Z" fill="black"/>
<path d="M69.1217 335.06V356H64.9217V342.38L59.3117 356H56.1317L50.4917 342.38V356H46.2917V335.06H51.0617L57.7217 350.63L64.3817 335.06H69.1217ZM88.7241 347.33C88.7241 347.93 88.6841 348.47 88.6041 348.95H76.4541C76.5541 350.15 76.9741 351.09 77.7141 351.77C78.4541 352.45 79.3641 352.79 80.4441 352.79C82.0041 352.79 83.1141 352.12 83.7741 350.78H88.3041C87.8241 352.38 86.9041 353.7 85.5441 354.74C84.1841 355.76 82.5141 356.27 80.5341 356.27C78.9341 356.27 77.4941 355.92 76.2141 355.22C74.9541 354.5 73.9641 353.49 73.2441 352.19C72.5441 350.89 72.1941 349.39 72.1941 347.69C72.1941 345.97 72.5441 344.46 73.2441 343.16C73.9441 341.86 74.9241 340.86 76.1841 340.16C77.4441 339.46 78.8941 339.11 80.5341 339.11C82.1141 339.11 83.5241 339.45 84.7641 340.13C86.0241 340.81 86.9941 341.78 87.6741 343.04C88.3741 344.28 88.7241 345.71 88.7241 347.33ZM84.3741 346.13C84.3541 345.05 83.9641 344.19 83.2041 343.55C82.4441 342.89 81.5141 342.56 80.4141 342.56C79.3741 342.56 78.4941 342.88 77.7741 343.52C77.0741 344.14 76.6441 345.01 76.4841 346.13H84.3741ZM101 339.14C102.98 339.14 104.58 339.77 105.8 341.03C107.02 342.27 107.63 344.01 107.63 346.25V356H103.43V346.82C103.43 345.5 103.1 344.49 102.44 343.79C101.78 343.07 100.88 342.71 99.7397 342.71C98.5797 342.71 97.6597 343.07 96.9797 343.79C96.3197 344.49 95.9897 345.5 95.9897 346.82V356H91.7897V339.38H95.9897V341.45C96.5497 340.73 97.2597 340.17 98.1197 339.77C98.9997 339.35 99.9597 339.14 101 339.14ZM118.134 339.11C119.374 339.11 120.464 339.36 121.404 339.86C122.344 340.34 123.084 340.97 123.624 341.75V339.38H127.854V356.12C127.854 357.66 127.544 359.03 126.924 360.23C126.304 361.45 125.374 362.41 124.134 363.11C122.894 363.83 121.394 364.19 119.634 364.19C117.274 364.19 115.334 363.64 113.814 362.54C112.314 361.44 111.464 359.94 111.264 358.04H115.434C115.654 358.8 116.124 359.4 116.844 359.84C117.584 360.3 118.474 360.53 119.514 360.53C120.734 360.53 121.724 360.16 122.484 359.42C123.244 358.7 123.624 357.6 123.624 356.12V353.54C123.084 354.32 122.334 354.97 121.374 355.49C120.434 356.01 119.354 356.27 118.134 356.27C116.734 356.27 115.454 355.91 114.294 355.19C113.134 354.47 112.214 353.46 111.534 352.16C110.874 350.84 110.544 349.33 110.544 347.63C110.544 345.95 110.874 344.46 111.534 343.16C112.214 341.86 113.124 340.86 114.264 340.16C115.424 339.46 116.714 339.11 118.134 339.11ZM123.624 347.69C123.624 346.67 123.424 345.8 123.024 345.08C122.624 344.34 122.084 343.78 121.404 343.4C120.724 343 119.994 342.8 119.214 342.8C118.434 342.8 117.714 342.99 117.054 343.37C116.394 343.75 115.854 344.31 115.434 345.05C115.034 345.77 114.834 346.63 114.834 347.63C114.834 348.63 115.034 349.51 115.434 350.27C115.854 351.01 116.394 351.58 117.054 351.98C117.734 352.38 118.454 352.58 119.214 352.58C119.994 352.58 120.724 352.39 121.404 352.01C122.084 351.61 122.624 351.05 123.024 350.33C123.424 349.59 123.624 348.71 123.624 347.69ZM138.466 339.11C139.706 339.11 140.796 339.36 141.736 339.86C142.676 340.34 143.416 340.97 143.956 341.75V339.38H148.186V356.12C148.186 357.66 147.876 359.03 147.256 360.23C146.636 361.45 145.706 362.41 144.466 363.11C143.226 363.83 141.726 364.19 139.966 364.19C137.606 364.19 135.666 363.64 134.146 362.54C132.646 361.44 131.796 359.94 131.596 358.04H135.766C135.986 358.8 136.456 359.4 137.176 359.84C137.916 360.3 138.806 360.53 139.846 360.53C141.066 360.53 142.056 360.16 142.816 359.42C143.576 358.7 143.956 357.6 143.956 356.12V353.54C143.416 354.32 142.666 354.97 141.706 355.49C140.766 356.01 139.686 356.27 138.466 356.27C137.066 356.27 135.786 355.91 134.626 355.19C133.466 354.47 132.546 353.46 131.866 352.16C131.206 350.84 130.876 349.33 130.876 347.63C130.876 345.95 131.206 344.46 131.866 343.16C132.546 341.86 133.456 340.86 134.596 340.16C135.756 339.46 137.046 339.11 138.466 339.11ZM143.956 347.69C143.956 346.67 143.756 345.8 143.356 345.08C142.956 344.34 142.416 343.78 141.736 343.4C141.056 343 140.326 342.8 139.546 342.8C138.766 342.8 138.046 342.99 137.386 343.37C136.726 343.75 136.186 344.31 135.766 345.05C135.366 345.77 135.166 346.63 135.166 347.63C135.166 348.63 135.366 349.51 135.766 350.27C136.186 351.01 136.726 351.58 137.386 351.98C138.066 352.38 138.786 352.58 139.546 352.58C140.326 352.58 141.056 352.39 141.736 352.01C142.416 351.61 142.956 351.05 143.356 350.33C143.756 349.59 143.956 348.71 143.956 347.69ZM151.208 347.63C151.208 345.95 151.538 344.46 152.198 343.16C152.878 341.86 153.788 340.86 154.928 340.16C156.088 339.46 157.378 339.11 158.798 339.11C160.038 339.11 161.118 339.36 162.038 339.86C162.978 340.36 163.728 340.99 164.288 341.75V339.38H168.518V356H164.288V353.57C163.748 354.35 162.998 355 162.038 355.52C161.098 356.02 160.008 356.27 158.768 356.27C157.368 356.27 156.088 355.91 154.928 355.19C153.788 354.47 152.878 353.46 152.198 352.16C151.538 350.84 151.208 349.33 151.208 347.63ZM164.288 347.69C164.288 346.67 164.088 345.8 163.688 345.08C163.288 344.34 162.748 343.78 162.068 343.4C161.388 343 160.658 342.8 159.878 342.8C159.098 342.8 158.378 342.99 157.718 343.37C157.058 343.75 156.518 344.31 156.098 345.05C155.698 345.77 155.498 346.63 155.498 347.63C155.498 348.63 155.698 349.51 156.098 350.27C156.518 351.01 157.058 351.58 157.718 351.98C158.398 352.38 159.118 352.58 159.878 352.58C160.658 352.58 161.388 352.39 162.068 352.01C162.748 351.61 163.288 351.05 163.688 350.33C164.088 349.59 164.288 348.71 164.288 347.69ZM193.26 339.14C195.3 339.14 196.94 339.77 198.18 341.03C199.44 342.27 200.07 344.01 200.07 346.25V356H195.87V346.82C195.87 345.52 195.54 344.53 194.88 343.85C194.22 343.15 193.32 342.8 192.18 342.8C191.04 342.8 190.13 343.15 189.45 343.85C188.79 344.53 188.46 345.52 188.46 346.82V356H184.26V346.82C184.26 345.52 183.93 344.53 183.27 343.85C182.61 343.15 181.71 342.8 180.57 342.8C179.41 342.8 178.49 343.15 177.81 343.85C177.15 344.53 176.82 345.52 176.82 346.82V356H172.62V339.38H176.82V341.39C177.36 340.69 178.05 340.14 178.89 339.74C179.75 339.34 180.69 339.14 181.71 339.14C183.01 339.14 184.17 339.42 185.19 339.98C186.21 340.52 187 341.3 187.56 342.32C188.1 341.36 188.88 340.59 189.9 340.01C190.94 339.43 192.06 339.14 193.26 339.14ZM208.255 341.81C208.795 341.01 209.535 340.36 210.475 339.86C211.435 339.36 212.525 339.11 213.745 339.11C215.165 339.11 216.445 339.46 217.585 340.16C218.745 340.86 219.655 341.86 220.315 343.16C220.995 344.44 221.335 345.93 221.335 347.63C221.335 349.33 220.995 350.84 220.315 352.16C219.655 353.46 218.745 354.47 217.585 355.19C216.445 355.91 215.165 356.27 213.745 356.27C212.505 356.27 211.415 356.03 210.475 355.55C209.555 355.05 208.815 354.41 208.255 353.63V356H204.055V333.8H208.255V341.81ZM217.045 347.63C217.045 346.63 216.835 345.77 216.415 345.05C216.015 344.31 215.475 343.75 214.795 343.37C214.135 342.99 213.415 342.8 212.635 342.8C211.875 342.8 211.155 343 210.475 343.4C209.815 343.78 209.275 344.34 208.855 345.08C208.455 345.82 208.255 346.69 208.255 347.69C208.255 348.69 208.455 349.56 208.855 350.3C209.275 351.04 209.815 351.61 210.475 352.01C211.155 352.39 211.875 352.58 212.635 352.58C213.415 352.58 214.135 352.38 214.795 351.98C215.475 351.58 216.015 351.01 216.415 350.27C216.835 349.53 217.045 348.65 217.045 347.63ZM223.307 347.63C223.307 345.95 223.637 344.46 224.297 343.16C224.977 341.86 225.887 340.86 227.027 340.16C228.187 339.46 229.477 339.11 230.897 339.11C232.137 339.11 233.217 339.36 234.137 339.86C235.077 340.36 235.827 340.99 236.387 341.75V339.38H240.617V356H236.387V353.57C235.847 354.35 235.097 355 234.137 355.52C233.197 356.02 232.107 356.27 230.867 356.27C229.467 356.27 228.187 355.91 227.027 355.19C225.887 354.47 224.977 353.46 224.297 352.16C223.637 350.84 223.307 349.33 223.307 347.63ZM236.387 347.69C236.387 346.67 236.187 345.8 235.787 345.08C235.387 344.34 234.847 343.78 234.167 343.4C233.487 343 232.757 342.8 231.977 342.8C231.197 342.8 230.477 342.99 229.817 343.37C229.157 343.75 228.617 344.31 228.197 345.05C227.797 345.77 227.597 346.63 227.597 347.63C227.597 348.63 227.797 349.51 228.197 350.27C228.617 351.01 229.157 351.58 229.817 351.98C230.497 352.38 231.217 352.58 231.977 352.58C232.757 352.58 233.487 352.39 234.167 352.01C234.847 351.61 235.387 351.05 235.787 350.33C236.187 349.59 236.387 348.71 236.387 347.69ZM248.919 341.96C249.459 341.08 250.159 340.39 251.019 339.89C251.899 339.39 252.899 339.14 254.019 339.14V343.55H252.909C251.589 343.55 250.589 343.86 249.909 344.48C249.249 345.1 248.919 346.18 248.919 347.72V356H244.719V339.38H248.919V341.96Z" fill="#EAE41E"/>
</svg>
